Experience summaries
…
Multiple grouping variables are allowed. Below, the presence of an
income guarantee (inc_guar) is added as a second grouping
variable.

exposed_data |> 
  group_by(inc_guar, pol_yr) |> 
  exp_stats()
#> Experience study results
#> 
#>  Groups: inc_guar, pol_yr 
#>  Target status: Surrender 
#>  Study range: 1900-01-01 to 2019-12-31 
#> 
#> # A tibble: 30 × 6
#>    inc_guar pol_yr n_claims claims exposure   q_obs
#>  * <lgl>     <int>    <int>  <int>    <dbl>   <dbl>
#>  1 FALSE         1       56     56    7720. 0.00725
#>  2 FALSE         2       92     92    7103. 0.0130 
#>  3 FALSE         3       67     67    6447. 0.0104 
#>  4 FALSE         4      123    123    5799. 0.0212 
#>  5 FALSE         5       97     97    5106. 0.0190 
#>  6 FALSE         6       96     96    4494. 0.0214 
#>  7 FALSE         7       92     92    3899. 0.0236 
#>  8 FALSE         8      103    103    3287. 0.0313 
#>  9 FALSE         9       87     87    2684. 0.0324 
#> 10 FALSE        10       60     60    2156. 0.0278 
#> # … with 20 more rows
…
exp_res <- exposed_data2 |>
  group_by(pol_yr, inc_guar) |>
  exp_stats(expected = c("expected_1", "expected_2"))

exp_res |> 
  select(pol_yr, inc_guar, q_obs, expected_1, expected_2, 
         ae_expected_1, ae_expected_2)
#> Experience study results
#> 
#>  Groups: pol_yr, inc_guar 
#>  Target status: Surrender 
#>  Study range: 1900-01-01 to 2019-12-31 
#>  Expected values: expected_1, expected_2 
#> 
#> # A tibble: 30 × 7
#>    pol_yr inc_guar   q_obs expected_1 expected_2 ae_expected_1 ae_expected_2
#>     <int> <lgl>      <dbl>      <dbl>      <dbl>         <dbl>         <dbl>
#>  1      1 FALSE    0.00725    0.005        0.03          1.45          0.242
#>  2      1 TRUE     0.00399    0.005        0.015         0.798         0.266
#>  3      2 FALSE    0.0130     0.00778      0.03          1.67          0.432
#>  4      2 TRUE     0.00641    0.00778      0.015         0.824         0.427
#>  5      3 FALSE    0.0104     0.0106       0.03          0.985         0.346
#>  6      3 TRUE     0.00591    0.0106       0.015         0.560         0.394
#>  7      4 FALSE    0.0212     0.0133       0.03          1.59          0.707
#>  8      4 TRUE     0.00515    0.0133       0.015         0.386         0.343
#>  9      5 FALSE    0.0190     0.0161       0.03          1.18          0.633
#> 10      5 TRUE     0.00858    0.0161       0.015         0.532         0.572
#> # … with 20 more rows
…
exposed_data2 |>
  group_by(pol_yr, inc_guar) |>
  exp_stats(expected = c("expected_1", "expected_2"), 
            wt = "pol_val") |> 
  select(pol_yr, inc_guar, q_obs, expected_1, expected_2, 
         ae_expected_1, ae_expected_2)
#> Experience study results
#> 
#>  Groups: pol_yr, inc_guar 
#>  Target status: Surrender 
#>  Study range: 1900-01-01 to 2019-12-31 
#>  Expected values: expected_1, expected_2 
#>  Weighted by: pol_val 
#> 
#> # A tibble: 30 × 7
#>    pol_yr inc_guar   q_obs expected_1 expected_2 ae_expected_1 ae_expected_2
#>     <int> <lgl>      <dbl>      <dbl>      <dbl>         <dbl>         <dbl>
#>  1      1 FALSE    0.00471    0.005        0.03          0.942         0.157
#>  2      1 TRUE     0.00235    0.005        0.015         0.470         0.157
#>  3      2 FALSE    0.0105     0.00778      0.03          1.36          0.351
#>  4      2 TRUE     0.00513    0.00778      0.015         0.660         0.342
#>  5      3 FALSE    0.00737    0.0106       0.03          0.698         0.246
#>  6      3 TRUE     0.00479    0.0106       0.015         0.453         0.319
#>  7      4 FALSE    0.0174     0.0133       0.03          1.30          0.579
#>  8      4 TRUE     0.00377    0.0133       0.015         0.283         0.252
#>  9      5 FALSE    0.0146     0.0161       0.03          0.907         0.487
#> 10      5 TRUE     0.00710    0.0161       0.015         0.441         0.473
#> # … with 20 more rows
…
exposed_data2 |> 
  group_by(pol_yr, inc_guar) |>
  exp_stats(credibility = TRUE) |> 
  select(pol_yr, inc_guar, claims, q_obs, credibility)
#> Experience study results
#> 
#>  Groups: pol_yr, inc_guar 
#>  Target status: Surrender 
#>  Study range: 1900-01-01 to 2019-12-31 
#> 
#> # A tibble: 30 × 5
#>    pol_yr inc_guar claims   q_obs credibility
#>     <int> <lgl>     <int>   <dbl>       <dbl>
#>  1      1 FALSE        56 0.00725       0.192
#>  2      1 TRUE         46 0.00399       0.173
#>  3      2 FALSE        92 0.0130        0.246
#>  4      2 TRUE         68 0.00641       0.211
#>  5      3 FALSE        67 0.0104        0.210
#>  6      3 TRUE         57 0.00591       0.193
#>  7      4 FALSE       123 0.0212        0.286
#>  8      4 TRUE         45 0.00515       0.172
#>  9      5 FALSE        97 0.0190        0.254
#> 10      5 TRUE         67 0.00858       0.210
#> # … with 20 more rows
…
exposed_data2 |> 
  group_by(pol_yr, inc_guar) |>
  exp_stats(credibility = TRUE, cred_p = 0.98, cred_r = 0.03) |> 
  select(pol_yr, inc_guar, claims, q_obs, credibility)
#> Experience study results
#> 
#>  Groups: pol_yr, inc_guar 
#>  Target status: Surrender 
#>  Study range: 1900-01-01 to 2019-12-31 
#> 
#> # A tibble: 30 × 5
#>    pol_yr inc_guar claims   q_obs credibility
#>     <int> <lgl>     <int>   <dbl>       <dbl>
#>  1      1 FALSE        56 0.00725      0.0969
#>  2      1 TRUE         46 0.00399      0.0876
#>  3      2 FALSE        92 0.0130       0.125 
#>  4      2 TRUE         68 0.00641      0.107 
#>  5      3 FALSE        67 0.0104       0.106 
#>  6      3 TRUE         57 0.00591      0.0976
#>  7      4 FALSE       123 0.0212       0.145 
#>  8      4 TRUE         45 0.00515      0.0867
#>  9      5 FALSE        97 0.0190       0.128 
#> 10      5 TRUE         67 0.00858      0.106 
#> # … with 20 more rows
…
exposed_data2 |> 
  group_by(pol_yr, inc_guar) |>
  exp_stats(credibility = TRUE, expected = "expected_1") |> 
  select(pol_yr, inc_guar, claims, q_obs, credibility, adj_expected_1, 
         expected_1, ae_expected_1)
#> Experience study results
#> 
#>  Groups: pol_yr, inc_guar 
#>  Target status: Surrender 
#>  Study range: 1900-01-01 to 2019-12-31 
#>  Expected values: expected_1 
#> 
#> # A tibble: 30 × 8
#>    pol_yr inc_guar claims   q_obs credibility adj_expected_1 expected_1 ae_exp…¹
#>     <int> <lgl>     <int>   <dbl>       <dbl>          <dbl>      <dbl>    <dbl>
#>  1      1 FALSE        56 0.00725       0.192        0.00543    0.005      1.45 
#>  2      1 TRUE         46 0.00399       0.173        0.00482    0.005      0.798
#>  3      2 FALSE        92 0.0130        0.246        0.00905    0.00778    1.67 
#>  4      2 TRUE         68 0.00641       0.211        0.00749    0.00778    0.824
#>  5      3 FALSE        67 0.0104        0.210        0.0105     0.0106     0.985
#>  6      3 TRUE         57 0.00591       0.193        0.00966    0.0106     0.560
#>  7      4 FALSE       123 0.0212        0.286        0.0156     0.0133     1.59 
#>  8      4 TRUE         45 0.00515       0.172        0.0119     0.0133     0.386
#>  9      5 FALSE        97 0.0190        0.254        0.0168     0.0161     1.18 
#> 10      5 TRUE         67 0.00858       0.210        0.0145     0.0161     0.532
#> # … with 20 more rows, and abbreviated variable name ¹​ae_expected_1
…
